{
  "visitor": {
    "visitor_id": "3",
    "content": {
      "1": {
        "header": "名前",
        "value": "Sample2"
      },
      "2": {
        "header": "年齢",
        "value": "28"
      },
      "3": {
        "header": "業種",
        "value": "IT"
      },
      "4": {
        "header": "職業",
        "value": "営業"
      },
      "5": {
        "header": "会社名",
        "value": "SmileVision"
      }
    },
    "note" : "",
    "favorite" : "1"
  },
  "error": "0"
}